<?xml version="1.0" encoding="utf-8"?>
<!-- Generator: Adobe Illustrator 22.1.0, SVG Export Plug-In . SVG Version: 6.00 Build 0)  -->
<svg version="1.1" id="RAW_ICONS_-_SQUARE__x2F__ROUNDED__x2F__CIRCLE"
	 xmlns="http://www.w3.org/2000/svg" xmlns:xlink="http://www.w3.org/1999/xlink" x="0px" y="0px" viewBox="0 0 32 32"
	 style="enable-background:new 0 0 32 32;" xml:space="preserve">
<style type="text/css">
	.st0{fill:#00B900;}
	.st1{fill:#FFFFFF;}
</style>
<path class="st0" d="M16,0C7.2,0,0,7.2,0,16s7.2,16,16,16s16-7.2,16-16S24.8,0,16,0z"/>
<path class="st1" d="M16,8.2c-4.3,0-7.8,3.5-7.8,7.8s3.5,7.8,7.8,7.8c0.8,0,1.6-0.1,2.4-0.4l0.5-0.2c0.2-0.1,0.3-0.2,0.2-0.4
	l-0.4-1.4c-0.1-0.2-0.2-0.3-0.4-0.2l-0.5,0.2c-0.6,0.2-1.2,0.3-1.8,0.3c-3.2,0-5.8-2.6-5.8-5.8s2.6-5.8,5.8-5.8
	c3.2,0,5.8,2.6,5.8,5.8c0,0.6-0.1,1.3-0.4,2c-0.2,0.5-0.6,0.9-0.9,0.9c-0.4,0-0.8-0.4-0.8-0.8v-5.5c0-0.2-0.1-0.3-0.3-0.3h-1.5
	c-0.2,0-0.3,0.1-0.3,0.3l0,0.1l-0.1-0.1c-0.6-0.3-1.2-0.5-1.8-0.5c-2.1,0-3.8,1.7-3.8,3.8s1.7,3.8,3.8,3.8c0.7,0,1.4-0.2,2-0.6
	l0.1,0l0,0.1c0.5,1.1,1.5,1.7,2.6,1.7c1.2,0,2.4-0.9,2.9-2.3c0.3-0.9,0.5-1.8,0.5-2.7C23.8,11.7,20.3,8.2,16,8.2z M17.6,16
	c0,1-0.8,1.9-1.9,1.9S13.8,17,13.8,16s0.8-1.9,1.9-1.9S17.6,15,17.6,16z"/>
</svg>
