<!-- Generator: Adobe Illustrator 22.0.1, SVG Export Plug-In  -->
<svg version="1.1"
	 xmlns="http://www.w3.org/2000/svg" xmlns:xlink="http://www.w3.org/1999/xlink" xmlns:a="http://ns.adobe.com/AdobeSVGViewerExtensions/3.0/"
	 x="0px" y="0px" width="279.7px" height="251.9px" viewBox="0 0 279.7 251.9" style="enable-background:new 0 0 279.7 251.9;"
	 xml:space="preserve">
<style type="text/css">
	.st0{fill:#FFFFFF;}
</style>
<defs>
</defs>
<path class="st0" d="M252,0H27.7C12.5,0,0,12.5,0,27.7v5.5v30.5v60.9h0.6C6.9,196,66.8,251.9,139.8,251.9c73,0,132.9-56,139.2-127.3
	h0.6V63.7V33.2v-5.5C279.7,12.5,267.2,0,252,0z M217.7,105.2l-65.3,65.3c-3.6,3.6-8.3,5.4-13.1,5.4c-4.7,0-9.4-1.8-13.1-5.4
	l-65.3-65.3c-7.2-7.2-7.2-18.9,0-26.1c7.2-7.2,18.9-7.2,26.1,0l52.2,52.2l52.2-52.2c7.2-7.2,18.9-7.2,26.1,0
	C224.9,86.4,224.9,98,217.7,105.2z"/>
</svg>
