<!-- Generator: Adobe Illustrator 22.0.1, SVG Export Plug-In  -->
<svg version="1.1"
	 xmlns="http://www.w3.org/2000/svg" xmlns:xlink="http://www.w3.org/1999/xlink" xmlns:a="http://ns.adobe.com/AdobeSVGViewerExtensions/3.0/"
	 x="0px" y="0px" width="272.7px" height="227.3px" viewBox="0 0 272.7 227.3" style="enable-background:new 0 0 272.7 227.3;"
	 xml:space="preserve">
<style type="text/css">
	.st0{fill:#FFFFFF;}
</style>
<defs>
</defs>
<g>
	<path class="st0" d="M164.5,121.7c-9.1-10.1-21.6-15.8-37.8-17c14.4-3.9,24.8-9.6,31.4-17.3c6.6-7.6,9.8-17.8,9.8-30.7
		c0-10.2-2.2-19.3-6.6-27.1c-4.4-7.8-10.8-14-19.2-18.6c-7.3-4-16-6.9-26.2-8.6C105.8,0.8,87.9,0,62.3,0H0v227.3h64.2
		c25.8,0,44.4-0.9,55.8-2.6c11.4-1.8,20.9-4.8,28.6-8.9c9.5-5,16.8-12.2,21.9-21.4c5.1-9.2,7.7-19.9,7.7-32.1
		C178.2,145.4,173.6,131.8,164.5,121.7z M57.5,50.4h13.3c15.4,0,25.7,1.7,31,5.2c5.3,3.5,7.9,9.5,7.9,18c0,8.2-2.9,14-8.5,17.4
		c-5.7,3.3-16.1,5-31.4,5H57.5V50.4z M110.3,180.7c-6.1,3.7-16.5,5.5-31.1,5.5H57.5v-49.7h22.6c15,0,25.4,1.9,30.9,5.7
		c5.6,3.8,8.4,10.4,8.4,20C119.4,170.9,116.4,177,110.3,180.7z"/>
	<path class="st0" d="M243.9,169.7c-15.9,0-28.8,12.9-28.8,28.8c0,15.9,12.9,28.8,28.8,28.8c15.9,0,28.8-12.9,28.8-28.8
		C272.7,182.6,259.8,169.7,243.9,169.7z"/>
	<rect x="218.9" class="st0" width="50" height="151.5"/>
</g>
</svg>
