<!-- Generator: Adobe Illustrator 22.0.1, SVG Export Plug-In  -->
<svg version="1.1"
	 xmlns="http://www.w3.org/2000/svg" xmlns:xlink="http://www.w3.org/1999/xlink" xmlns:a="http://ns.adobe.com/AdobeSVGViewerExtensions/3.0/"
	 x="0px" y="0px" width="250px" height="203.2px" viewBox="0 0 250 203.2" style="enable-background:new 0 0 250 203.2;"
	 xml:space="preserve">
<style type="text/css">
	.st0{fill:#FFFFFF;}
</style>
<defs>
</defs>
<path class="st0" d="M78.6,203.2c94.3,0,145.9-78.2,145.9-145.9c0-2.2,0-4.4-0.1-6.6c10-7.2,18.7-16.3,25.6-26.6
	c-9.2,4.1-19.1,6.8-29.5,8.1c10.6-6.3,18.7-16.4,22.6-28.4c-9.9,5.9-20.9,10.1-32.6,12.4C201.2,6.2,187.8,0,173.1,0
	c-28.3,0-51.3,23-51.3,51.3c0,4,0.5,7.9,1.3,11.7C80.5,60.8,42.7,40.4,17.4,9.4C13,17,10.5,25.8,10.5,35.2
	c0,17.8,9.1,33.5,22.8,42.7C24.9,77.6,17,75.3,10,71.5c0,0.2,0,0.4,0,0.7c0,24.8,17.7,45.6,41.1,50.3c-4.3,1.2-8.8,1.8-13.5,1.8
	c-3.3,0-6.5-0.3-9.6-0.9c6.5,20.4,25.5,35.2,47.9,35.6c-17.6,13.8-39.7,22-63.7,22c-4.1,0-8.2-0.2-12.2-0.7
	C22.7,194.7,49.7,203.2,78.6,203.2"/>
</svg>
